{
  "appId": "nl.conclusion.voorbeeldpwa",
  "appName": "Voorbeeld PWA",
  "bundledWebRuntime": false,
  "npmClient": "npm",
  "webDir": "build",
  "plugins": {
    "SplashScreen": {
      "launchShowDuration": 0
    },
    "PushNotifications": {
      "presentationOptions": ["badge", "sound", "alert"]
    }
  },
  "cordova": {},
  "server": {
    "url": "http://192.168.178.59:3000",
    "cleartext": true
  }
}
